{
  "page": 1,
  "total_results": 400302,
  "total_pages": 20016,
  "results": [
    {
      "vote_count": 3119,
      "id": 297802,
      "video": false,
      "vote_average": 6.9,
      "title": "Aquaman",
      "popularity": 483.065,
      "poster_path": "\/z5gqW3fffzQ16Jv5vDScpypq1FA.jpg",
      "original_language": "en",
      "original_title": "Aquaman",
      "genre_ids": [
        28,
        14,
        878,
        12
      ],
      "backdrop_path": "\/5A2bMlLfJrAfX9bqAibOL2gCruF.jpg",
      "adult": false,
      "overview": "Un icono durante más de 70 años, Aquaman (Jason Momoa) es el Rey de los Siete Mares. Este reacio gobernante de Atlantis se encuentra atrapado entre los constantes estragos causados al mar por los habitantes de la superficie y los atlantes buscando rebelarse. Pese a todo está decidido a proteger el mundo entero.",
      "release_date": "2018-12-07"
    },
    {
      "vote_count": 1020,
      "id": 424783,
      "video": false,
      "vote_average": 6.5,
      "title": "Bumblebee",
      "popularity": 263.575,
      "poster_path": "\/jy1lwWSWQf5yqPOmPbXI5T7wRZW.jpg",
      "original_language": "en",
      "original_title": "Bumblebee",
      "genre_ids": [
        28,
        12,
        878
      ],
      "backdrop_path": "\/hMANgfPHR1tRObNp2oPiOi9mMlz.jpg",
      "adult": false,
      "overview": "Sexta entrega de la saga 'Transformers', esta vez centrada en el \"hermano pequeño\" de los Autobots, Bumblebee. Tratando de escapar, en el año 1987, Bumblebee encuentra refugio en un depósito de chatarra en una pequeña ciudad en la costa Californiana. Charlie (Hailee Steinfeld), a punto de cumplir 18 años y tratando de encontrar su lugar en el mundo, descubre a Bumblebee, dañado durante una batalla y descompuesto. Cuando Charlie lo revive, aprende rápidamente que éste no es un VW amarillo ordinario.",
      "release_date": "2018-12-15"
    },
    {
      "vote_count": 4242,
      "id": 424694,
      "video": false,
      "vote_average": 8.2,
      "title": "Bohemian Rhapsody",
      "popularity": 218.432,
      "poster_path": "\/sVmTZxuXhSGYmNL8gbv2XcKTFUy.jpg",
      "original_language": "en",
      "original_title": "Bohemian Rhapsody",
      "genre_ids": [
        18,
        10402
      ],
      "backdrop_path": "\/93xA62uLd5CwMOAs37eQ7vPc1iV.jpg",
      "adult": false,
      "overview": "Bohemian Rhapsody es una rotunda y sonora celebración de Queen, de su música y de su extraordinario cantante Freddie Mercury, que desafió estereotipos e hizo añicos tradiciones para convertirse en uno de los showmans más queridos del mundo. La película plasma el meteórico ascenso al olimpo de la música de la banda a través de sus icónicas canciones y su revolucionario sonido, su crisis cuando el estilo de vida de Mercury estuvo fuera de control, y su triunfal reunión en la víspera del Live Aid, en la que Mercury, mientras sufría una enfermedad que amenazaba su vida, lidera a la banda en uno de los conciertos de rock más grandes de la historia. Veremos cómo se cimentó el legado de una banda que siempre se pareció más a una familia, y que continúa inspirando a propios y extraños, soñadores y amantes de la música hasta nuestros días.",
      "release_date": "2018-10-24"
    },
    {
      "vote_count": 201,
      "id": 483906,
      "video": false,
      "vote_average": 6.4,
      "title": "Polar",
      "popularity": 194.766,
      "poster_path": "\/qOBEpKVLl8Q9CZScbOcRRVISezV.jpg",
      "original_language": "en",
      "original_title": "Polar",
      "genre_ids": [
        28,
        80,
        35,
        18
      ],
      "backdrop_path": "\/u8CP7EeWbYMlIVqEoKAt6OYsEe1.jpg",
      "adult": false,
      "overview": "Duncan Vizla, el asesino más letal del mundo, conocido como Black Káiser (Mads Mikkelsen), está a punto de jubilarse. Pero su antiguo jefe le ha puesto precio a su cabeza. Y, en contra de su voluntad, tiene que plantarle cara a un grupo de sicarios más jóvenes, rápidos y despiadados, dispuestos a todo para eliminarlo. Adaptación de la novela gráfica \"Polar: Came From the Cold\" de Victor Santos.",
      "release_date": "2019-01-25"
    },
    {
      "vote_count": 829,
      "id": 480530,
      "video": false,
      "vote_average": 6.6,
      "title": "Creed II",
      "popularity": 191.233,
      "poster_path": "\/rButUxve80Y46abjc8qaKUWq6w8.jpg",
      "original_language": "en",
      "original_title": "Creed II",
      "genre_ids": [
        18,
        28
      ],
      "backdrop_path": "\/8yqLPNwNCtpOPc3XkOlkSMnghzw.jpg",
      "adult": false,
      "overview": "Secuela de Creed. La leyenda de Rocky que seguirá narrando la historia de Adonis Creed, el hijo de Apollo Creed que es entrenado por el ex campeón de los pesos pesados Rocky Balboa para conseguir el título de campeón que consiguió su padre en 1979.",
      "release_date": "2018-11-21"
    },
    {
      "vote_count": 889,
      "id": 450465,
      "video": false,
      "vote_average": 6.9,
      "title": "Glass (Cristal)",
      "popularity": 186.992,
      "poster_path": "\/vYbLXENNUaNcHQl4Te94Msqn1oj.jpg",
      "original_language": "en",
      "original_title": "Glass",
      "genre_ids": [
        53,
        27,
        9648,
        18
      ],
      "backdrop_path": "\/lvjscO8wmpEbIfOEZi92Je8Ktlg.jpg",
      "adult": false,
      "overview": "Continuando desde donde lo dejó \"Múltiple\", \"Glass\" sigue los pasos de David Dunn (Bruce Willis) en su búsqueda de la figura superhumana de \"La Bestia\". En la sombra, Elijah Price (Samuel L. Jackson) parece emerger como una figura clave que conoce los secretos de ambos. Secuela de \"El protegido\" y \"Múltiple\", de M. Night Shyamalan.",
      "release_date": "2019-01-16"
    },
    {
      "vote_count": 288,
      "id": 503314,
      "video": false,
      "vote_average": 7.5,
      "title": "Dragon Ball Super: Broly",
      "popularity": 176.405,
      "poster_path": "\/4urPfAgAWyimfKghVWRvVwD88Cz.jpg",
      "original_language": "ja",
      "original_title": "ドラゴンボール超スーパー ブロリー",
      "genre_ids": [
        28,
        16,
        878
      ],
      "backdrop_path": "\/6OTRuxpwUUGbmCX3MKP25dOmo59.jpg",
      "adult": false,
      "overview": "La Tierra vive en paz después de que concluyó el Torneo de Fuerza. Luego de darse cuenta que los Universos aún tienen muchos guerreros poderosos, Gokú pasa todos los días entrenando para alcanzar un nivel de pelea mayor.  Un día Gokú y Vegeta enfrentan a un nuevo saiyajin llamado “Broly”, a quien nunca antes han visto. Supuestamente, los saiyajin fueron arrasados durante la destrucción del planeta Vegeta; entonces ¿qué hace uno de ellos en la Tierra?  Este encuentro entre tres saiyajin, que han tenido destinos diferentes, se convierte en una batalla estupenda, con Freezer (que ha vuelto del infierno) atrapado en medio de ellos.",
      "release_date": "2018-12-14"
    },
    {
      "vote_count": 416,
      "id": 401469,
      "video": false,
      "vote_average": 6.7,
      "title": "Viudas",
      "popularity": 170.21,
      "poster_path": "\/klnT1cOnFwu72OMfPeKYg7kj3Dw.jpg",
      "original_language": "en",
      "original_title": "Widows",
      "genre_ids": [
        80,
        18,
        53
      ],
      "backdrop_path": "\/71OjxI27tK7kTIiPnMkdQDx14pe.jpg",
      "adult": false,
      "overview": "Adaptación cinematográfica de 'Las viudas' ('Widows'), miniserie británica de 1983, aquí ambientada en Chicago en la actualidad, sobre cuatro mujeres con nada en común excepto una deuda heredada por las actividades criminales de sus difuntos maridos. Verónica (Viola Davis), Alice (Elizabeth Debicki), Linda (Michelle Rodriguez) y Belle (Cynthia Erivo), deciden tomar las riendas de su destino y conspiran para forjarse un futuro con sus propias reglas. Con guion de Gillian Flynn ('Perdida').",
      "release_date": "2018-11-06"
    },
    {
      "vote_count": 73,
      "id": 522681,
      "video": false,
      "vote_average": 6.5,
      "title": "Escape Room",
      "popularity": 169.028,
      "poster_path": "\/8yZAx7tlKRZIg7pJfaPhl00yHIQ.jpg",
      "original_language": "en",
      "original_title": "Escape Room",
      "genre_ids": [
        27,
        53,
        28
      ],
      "backdrop_path": "\/9cmrRktcAmhteKMNRl2hU6rQzLJ.jpg",
      "adult": false,
      "overview": "Thiller psicológico en el que seis extraños deberán usar su ingenio para ir encontrando pistas o morir en el intento.",
      "release_date": "2019-01-03"
    },
    {
      "vote_count": 3071,
      "id": 332562,
      "video": false,
      "vote_average": 7.5,
      "title": "Ha nacido una estrella",
      "popularity": 163.866,
      "poster_path": "\/jAdNHXbswMuIhcRInIzphZvJElA.jpg",
      "original_language": "en",
      "original_title": "A Star Is Born",
      "genre_ids": [
        18,
        10402,
        10749
      ],
      "backdrop_path": "\/wqtaHWOEZ3rXDJ8c6ZZShulbo18.jpg",
      "adult": false,
      "overview": "Jackson Maine es una estrella de la música que se enamora de Ally (Lady Gaga), una artista que lucha por salir adelante. Justo cuando Ally está a punto de abandonar su sueño de convertirse en cantante, Jack decide ayudarla en su carrera hacia la fama. El camino será más duro de lo que imaginan ...",
      "release_date": "2018-10-03"
    },
    {
      "vote_count": 639,
      "id": 428078,
      "video": false,
      "vote_average": 6,
      "title": "Maquinas mortales",
      "popularity": 153.788,
      "poster_path": "\/h6SNnAmHitf3AlYPh53Nri0t1BC.jpg",
      "original_language": "en",
      "original_title": "Mortal Engines",
      "genre_ids": [
        878,
        28,
        12,
        14,
        53
      ],
      "backdrop_path": "\/rxYG6Sj95as9rv9wKIHUx6ATWd3.jpg",
      "adult": false,
      "overview": "En un futuro distópico, las ciudades son gigantes fortalezas en movimiento por el planeta que luchan entre sí por los escasos recursos que aún quedan. Miles de años después de que la civilización fuera destruida por un evento catastrófico, la humanidad se ha adaptado y evolucionado en una nueva forma de vida. Las gigantescas ciudades en movimiento atacan de manera despiadada a los pueblos más pequeños.  Tom Natsworthy y sus compañeros intentarán cambiar el trágico final al que parece que se aboca el planeta.",
      "release_date": "2018-12-05"
    },
    {
      "vote_count": 276,
      "id": 504172,
      "video": false,
      "vote_average": 6.3,
      "title": "Mula",
      "popularity": 139.737,
      "poster_path": "\/jB0BAnfOPB9rOi612UsH0DvBXk0.jpg",
      "original_language": "en",
      "original_title": "The Mule",
      "genre_ids": [
        80,
        18,
        53
      ],
      "backdrop_path": "\/bkc4AY6FTa3yNqrshE9b1elDzPt.jpg",
      "adult": false,
      "overview": "A Earl Stone (Eastwood), un octogenario que está en quiebra, solo, y que se enfrenta a la ejecución hipotecaria de su negocio, se le ofrece un trabajo aparentemente facil: sólo requiere conducir. Pero, sin saberlo, Earl se convirte en traficante de drogas para un cártel mexicano, y pasa a estar bajo el radar del agente de la DEA Colin Bates (Cooper).",
      "release_date": "2018-12-14"
    },
    {
      "vote_count": 13,
      "id": 390634,
      "video": false,
      "vote_average": 4.8,
      "title": "Fate\/stay night: Heaven's Feel - II. Mariposa Perdida",
      "popularity": 126.117,
      "poster_path": "\/t0jwlwFUrtkPJoq5JH9YrRVROXZ.jpg",
      "original_language": "ja",
      "original_title": "劇場版「Fate\/stay night [Heaven's Feel] ⅠⅠ. lost butterfly」",
      "genre_ids": [
        16,
        28,
        14,
        12
      ],
      "backdrop_path": "\/3haESpzscyP1pLl2BxQ9j5KK9cM.jpg",
      "adult": false,
      "overview": "Segunda de tres películas adaptando la tercera ruta de Fate\/stay night.",
      "release_date": "2019-01-12"
    },
    {
      "vote_count": 1375,
      "id": 324857,
      "video": false,
      "vote_average": 8.5,
      "title": "Spider-Man: Un Nuevo Universo",
      "popularity": 119.745,
      "poster_path": "\/xRMZikjAHNFebD1FLRqgDZeGV4a.jpg",
      "original_language": "en",
      "original_title": "Spider-Man: Into the Spider-Verse",
      "genre_ids": [
        28,
        12,
        16,
        878,
        35
      ],
      "backdrop_path": "\/7d6EY00g1c39SGZOoCJ5Py9nNth.jpg",
      "adult": false,
      "overview": "En un universo paralelo donde Peter Parker ha muerto, un joven de secundaria llamado Miles Morales es el nuevo Spider-Man. Sin embargo, cuando el líder mafioso Wilson Fisk (a.k.a Kingpin) construye el \"Super Colisionador\" trae a una versión alternativa de Peter Parker que tratará de enseñarle a Miles como ser un mejor Spider-Man. Pero no será el único Spider Man en entrar a este universo, 4 versiones alternas de Spidey aparecerán y buscarán regresar a su universo antes de que toda la realidad colapse",
      "release_date": "2018-12-07"
    },
    {
      "vote_count": 314,
      "id": 433249,
      "video": false,
      "vote_average": 5,
      "title": "IO: Sola en la Tierra",
      "popularity": 113.028,
      "poster_path": "\/utH781EwjzzXQC6fZUO3cw8L5Ht.jpg",
      "original_language": "en",
      "original_title": "IO",
      "genre_ids": [
        878,
        18,
        12,
        10749
      ],
      "backdrop_path": "\/tirhxzSR6g1A9Iayo2lpYW4luUF.jpg",
      "adult": false,
      "overview": "Sam, una adolescente, es una de las últimas supervivientes de una Tierra post-apocalíptica. Con el transbordador final programado para salir del planeta, Sam debe decidir si viajar al punto de lanzamiento y unirse al resto de la humanidad; o permanecer en la Tierra, y ser un náufrago en el único hogar que ha conocido.",
      "release_date": "2019-01-18"
    },
    {
      "vote_count": 466,
      "id": 375588,
      "video": false,
      "vote_average": 5.8,
      "title": "Robin Hood. Forajido, héroe, leyenda",
      "popularity": 109.08,
      "poster_path": "\/v0QEhPYZngTzntKSvXXRbqcyVEQ.jpg",
      "original_language": "en",
      "original_title": "Robin Hood",
      "genre_ids": [
        12,
        28,
        53
      ],
      "backdrop_path": "\/AuA50D7T7S7OEVcGo0ZKaMhERn0.jpg",
      "adult": false,
      "overview": "Cuando el joven Robin Hood (Taron Egerton) regresa a su hogar, endurecido, tras luchar como guerrero en Las Cruzadas, descubre un reino en el que la corrupción es la moneda de cambio de la corona inglesa. En ese momento, junto a su compañero Little John (Jamie Foxx), toma la decisión de formar una banda de bandidos y liderar una audaz rebelión en la que se enfrentarán al malvado Sheriff de Nottingham (Ben Mendelsohn).",
      "release_date": "2018-11-20"
    },
    {
      "vote_count": 11081,
      "id": 299536,
      "video": false,
      "vote_average": 8.3,
      "title": "Vengadores: Infinity War",
      "popularity": 106.257,
      "poster_path": "\/rDLmMzkaFMFWF1UnnlboMfifVXM.jpg",
      "original_language": "en",
      "original_title": "Avengers: Infinity War",
      "genre_ids": [
        12,
        28,
        14
      ],
      "backdrop_path": "\/bOGkgRGdhrBYJSLpXaxhXVstddV.jpg",
      "adult": false,
      "overview": "El todopoderoso Thanos ha despertado con la promesa de arrasar con todo a su paso, portando el Guantelete del Infinito, que le confiere un poder incalculable. Los únicos capaces de pararle los pies son los Vengadores y el resto de superhéroes de la galaxia, que deberán estar dispuestos a sacrificarlo todo por un bien mayor. Capitán América e Ironman deberán limar sus diferencias, Black Panther apoyará con sus tropas desde Wakanda, Thor y los Guardianes de la Galaxia e incluso Spider-Man se unirán antes de que los planes de devastación y ruina pongan fin al universo. ¿Serán capaces de frenar el avance del titán del caos?",
      "release_date": "2018-04-25"
    },
    {
      "vote_count": 674,
      "id": 360920,
      "video": false,
      "vote_average": 6.3,
      "title": "El Grinch",
      "popularity": 102.11,
      "poster_path": "\/2EkmZarboPjXY4NjD8fNygsEj5H.jpg",
      "original_language": "en",
      "original_title": "The Grinch",
      "genre_ids": [
        16,
        10751,
        35,
        14
      ],
      "backdrop_path": "\/juc9wt7Eh2IarLL5S1yQ1a21O1A.jpg",
      "adult": false,
      "overview": "Cada año, en Navidad, los lugareños perturban su pacífica soledad con celebraciones cada vez más desmesuradas, luminosas y ruidosas. Cuando los Quién declaran que ese año van a preparar una Navidad el triple de grande, el Grinch se da cuenta de que solo hay un modo de recuperar algo de paz y silencio: robar la Navidad. Para ello, decide hacerse pasar por Santa Claus en Nochebuena, haciéndose con un reno muy peculiar para tirar de su trineo. Mientras tanto, en Villa Quién, una dulce niña llamada Cindy-Lou, desbordante de espíritu navideño, planea con sus amigos atrapar a Santa Claus durante su visita en Nochebuena para darle las gracias por ayudar a su trabajadora madre. Sin embargo, a medida que se acerca la noche mágica, sus buenas intenciones amenazan con chocar con las del Grinch, mucho más perversas. ¿Logrará Cindy-Lou cumplir su deseo de conocer a Santa Claus? ¿Conseguirá el Grinch poner fin al jolgorio navideño de los Quién de una vez por todas?",
      "release_date": "2018-11-08"
    },
    {
      "vote_count": 253,
      "id": 446807,
      "video": false,
      "vote_average": 5.8,
      "title": "La chica en la telaraña",
      "popularity": 96.106,
      "poster_path": "\/c156owEtfOYVIOl0LSrqjRewZdg.jpg",
      "original_language": "en",
      "original_title": "The Girl in the Spider's Web",
      "genre_ids": [
        53,
        80,
        28
      ],
      "backdrop_path": "\/r0ljJIPBGsGdpeDdlHpzCiNnxiB.jpg",
      "adult": false,
      "overview": "Adapta la novela escrita por David Lagercrantz donde la joven hacker Lisbeth Salander y el periodista Mikael Blomkvist se verán atrapados en una red de espías, ciberdelincuentes y funcionarios del gobierno corruptos.",
      "release_date": "2018-10-26"
    },
    {
      "vote_count": 729,
      "id": 400650,
      "video": false,
      "vote_average": 6.8,
      "title": "El Regreso de Mary Poppins",
      "popularity": 94.273,
      "poster_path": "\/d9bLYgkgppdsyGaI4uSrZedBKpA.jpg",
      "original_language": "en",
      "original_title": "Mary Poppins Returns",
      "genre_ids": [
        14,
        10751,
        35
      ],
      "backdrop_path": "\/cwiJQXezWz876K3jS57Sq56RYCZ.jpg",
      "adult": false,
      "overview": "En la era de la Depresión de Londres, un ahora crecidos Jane y Michael Banks, junto con los tres hijos de Michael, son visitados por la enigmática Mary Poppins después de la pérdida de un pariente. A través de sus habilidades mágicas únicas, y con la ayuda de su amigo Jack, ella ayuda a la familia a redescubrir la alegría y la maravilla que falta en sus vidas.",
      "release_date": "2018-12-19"
    }
  ]
}